…
# Fit the model to estimate the lower extreme threshold using a “typical” period
result <- model_extremes_uni(
  full_data = data,
  time_col = date,
  typical_start = "2020-01-01",
  typical_end = "2020-08-30",
  response = value,
  thr_prob_fit = 0.1,
  t_method = "boxplot"
)
#> # A tsibble: 243 x 2 [1D]
#>    date        value
#>    <date>      <dbl>
#>  1 2020-01-01  0.342
#>  2 2020-01-02 -0.577
#>  3 2020-01-03  2.22 
#>  4 2020-01-04  2.92 
#>  5 2020-01-05  0.546
#>  6 2020-01-06  1.45 
#>  7 2020-01-07  0.907
#>  8 2020-01-08 -0.668
#>  9 2020-01-09 -0.419
#> 10 2020-01-10  1.38 
#> # ℹ 233 more rows
…
