Weather-Based Blast Disease Forecasting and Early Warning System • riceblast
…
# Fit the model to estimate the lower extreme threshold using a “typical” period
result <- model_extremes_uni(
  full_data = data,
  time_col = date,
  typical_start = "2020-01-01",
  typical_end = "2020-08-30",
  response = value,
  thr_prob_fit = 0.1,
  t_method = "evd",
  k=0
)
#> # A tsibble: 243 x 2 [1D]
#>    date        value
#>    <date>      <dbl>
#>  1 2020-01-01  0.642
#>  2 2020-01-02 -1.15 
#>  3 2020-01-03 -0.384
#>  4 2020-01-04 -1.15 
#>  5 2020-01-05 -0.785
#>  6 2020-01-06 -0.948
#>  7 2020-01-07 -0.369
#>  8 2020-01-08  1.15 
#>  9 2020-01-09 -0.150
#> 10 2020-01-10  1.10 
#> # ℹ 233 more rows
…
