Visualize Fitted, Forecasted, and Extreme Error Patterns — plot_extreme_analysis • riceblast
…
# Run the model_extremes function
result <- model_extremes(
  full_data = data,
  time_col = date,
  typical_start = "2020-01-01",
  typical_end = "2020-08-30",
  response = value,
  thr_prob_fit = 0.1,
  t_method = "boxplot"
)
#> # A tsibble: 243 x 2 [1D]
#>    date        value
#>    <date>      <dbl>
#>  1 2020-01-01 -1.71 
#>  2 2020-01-02 -0.832
#>  3 2020-01-03  1.10 
#>  4 2020-01-04 -0.174
#>  5 2020-01-05  0.179
#>  6 2020-01-06 -0.698
#>  7 2020-01-07 -0.960
#>  8 2020-01-08 -0.975
#>  9 2020-01-09 -0.339
#> 10 2020-01-10  1.15 
#> # ℹ 233 more rows
…
