Test Model Extremes on Fitted and Forecasted Periods — test_extremes_uni • riceblast
…
result <- model_extremes_uni(
  full_data = data,
  time_col = date,
  typical_start = "2020-01-01",
  typical_end = "2020-08-30",
  response = value,
  thr_prob_fit = 0.1,
  t_method = "boxplot"
)
#> # A tsibble: 243 x 2 [1D]
#>    date        value
#>    <date>      <dbl>
#>  1 2020-01-01 -1.64 
#>  2 2020-01-02  0.508
#>  3 2020-01-03  1.75 
#>  4 2020-01-04  0.592
#>  5 2020-01-05  1.02 
#>  6 2020-01-06  0.122
#>  7 2020-01-07 -1.08 
#>  8 2020-01-08 -1.14 
#>  9 2020-01-09 -0.530
#> 10 2020-01-10 -0.681
#> # ℹ 233 more rows
…
test_result <- riceblast::test_extremes_uni(result,test_data = test_data,  h = 200)

test_result
#> $model
#> # A mable: 1 x 1
#>   `fable::ARIMA(value)`
#>                 <model>
#> 1        <ARIMA(1,0,0)>
#> 
#> $forecast
#> # A fable: 200 x 4 [1D]
#> # Key:     .model [1]
#>    .model              date      
#>    <chr>               <date>    
#>  1 fable::ARIMA(value) 2020-08-31
#>  2 fable::ARIMA(value) 2020-09-01
#>  3 fable::ARIMA(value) 2020-09-02
#>  4 fable::ARIMA(value) 2020-09-03
#>  5 fable::ARIMA(value) 2020-09-04
#>  6 fable::ARIMA(value) 2020-09-05
#>  7 fable::ARIMA(value) 2020-09-06
#>  8 fable::ARIMA(value) 2020-09-07
#>  9 fable::ARIMA(value) 2020-09-08
#> 10 fable::ARIMA(value) 2020-09-09
#> # ℹ 190 more rows
#> # ℹ 2 more variables: value <dist>, .mean <dbl>
#> 
#> $all_errors
#> # A tsibble: 443 x 3 [1D]
#>    date         error type           
#>    <date>       <dbl> <chr>          
#>  1 2020-01-01 -1.62   Fitted Residual
#>  2 2020-01-02  0.770  Fitted Residual
#>  3 2020-01-03  1.67   Fitted Residual
#>  4 2020-01-04  0.312  Fitted Residual
#>  5 2020-01-05  0.922  Fitted Residual
#>  6 2020-01-06 -0.0410 Fitted Residual
#>  7 2020-01-07 -1.10   Fitted Residual
#>  8 2020-01-08 -0.971  Fitted Residual
#>  9 2020-01-09 -0.347  Fitted Residual
#> 10 2020-01-10 -0.597  Fitted Residual
#> # ℹ 433 more rows
#> 
#> $lower_limit
#>       25% 
#> -2.544031 
#> 
#> $full_data
#> # A tsibble: 366 x 2 [1D]
#>    date        value
#>    <date>      <dbl>
#>  1 2020-01-01 -1.64 
#>  2 2020-01-02  0.508
#>  3 2020-01-03  1.75 
#>  4 2020-01-04  0.592
#>  5 2020-01-05  1.02 
#>  6 2020-01-06  0.122
#>  7 2020-01-07 -1.08 
#>  8 2020-01-08 -1.14 
#>  9 2020-01-09 -0.530
#> 10 2020-01-10 -0.681
#> # ℹ 356 more rows
…
